<?xml version="1.0" encoding="UTF-8"?>
<svg width="752pt" height="752pt" version="1.1" viewBox="0 0 752 752" xmlns="http://www.w3.org/2000/svg">
 <g>
  <path d="m319.15 362.64-24.191-3.5156-10.824-21.926c-1.5898-3.2383-6.9062-3.2383-8.4883 0l-10.824 21.926-24.191 3.5156c-1.7812 0.25391-3.2695 1.5078-3.8281 3.2188-0.55859 1.7148-0.09375 3.5977 1.1953 4.8594l17.512 17.078-4.1406 24.086c-0.30469 1.7812 0.42578 3.582 1.8867 4.6328 1.457 1.0625 3.3984 1.2109 4.9922 0.35938l21.645-11.375 21.645 11.375c0.69141 0.37109 1.4492 0.55078 2.207 0.55078 0.98438 0 1.9609-0.30469 2.7852-0.91016 1.457-1.0508 2.1875-2.8594 1.8867-4.6328l-4.1406-24.086 17.512-17.078c1.2891-1.2578 1.7539-3.1445 1.1953-4.8594-0.57422-1.7031-2.0508-2.9531-3.832-3.2188z"/>
  <path d="m223.04 362.66-24.199-3.5234-10.824-21.926c-1.5898-3.2383-6.9062-3.2383-8.4883 0l-10.824 21.926-24.191 3.5234c-1.7812 0.25391-3.2695 1.5078-3.8281 3.2188-0.55859 1.7148-0.09375 3.5898 1.1953 4.8477l17.504 17.059-4.1211 24.117c-0.30469 1.7812 0.42578 3.5703 1.8867 4.6211 1.4688 1.0625 3.3984 1.2109 4.9922 0.35938l21.645-11.375 21.645 11.375c0.69141 0.37109 1.4492 0.55078 2.207 0.55078 0.98438 0 1.9609-0.30469 2.7852-0.91016 1.457-1.0508 2.1875-2.8516 1.8867-4.6211l-4.1289-24.105 17.512-17.059c1.2891-1.2578 1.7539-3.1445 1.1953-4.8594-0.57031-1.7148-2.0547-2.9531-3.8477-3.2188z"/>
  <path d="m611.31 365.89c-0.55859-1.7148-2.0352-2.9648-3.8164-3.2188l-24.199-3.5234-10.824-21.926c-1.5898-3.2383-6.9062-3.2383-8.4883 0l-10.824 21.926-24.211 3.5234c-1.7812 0.25391-3.2695 1.5078-3.8164 3.2188-0.55078 1.7148-0.09375 3.5977 1.2031 4.8594l17.512 17.059-4.1484 24.098c-0.30469 1.7812 0.42578 3.582 1.8867 4.6328 0.82422 0.59766 1.8008 0.91016 2.7852 0.91016 0.75781 0 1.5078-0.17969 2.1992-0.55078l21.652-11.387 21.645 11.387c1.5898 0.85156 3.5234 0.69922 4.9805-0.35938 1.457-1.0508 2.1875-2.8594 1.8867-4.6328l-4.1484-24.098 17.512-17.059c1.3125-1.2617 1.7656-3.1445 1.2148-4.8594z"/>
  <path d="m511.38 362.66-24.211-3.5234-10.824-21.926c-0.79688-1.6211-2.4453-2.6445-4.2422-2.6445-1.8008 0-3.4492 1.0234-4.2422 2.6445l-10.836 21.926-24.191 3.5234c-1.7812 0.25391-3.2695 1.5078-3.8164 3.2188-0.55859 1.7148-0.09375 3.5898 1.2031 4.8477l17.504 17.059-4.1406 24.105c-0.30469 1.7812 0.42578 3.5703 1.8867 4.6211 0.82422 0.59766 1.8008 0.91016 2.7852 0.91016 0.75781 0 1.5078-0.17969 2.1992-0.55078l21.645-11.375 21.633 11.375c1.5898 0.85156 3.5234 0.69922 4.9805-0.35938 1.4492-1.0508 2.1875-2.8516 1.8867-4.6211l-4.1289-24.105 17.512-17.059c1.2969-1.2578 1.7617-3.1445 1.2031-4.8594-0.56641-1.7109-2.0234-2.9414-3.8047-3.207z"/>
  <path d="m415.27 362.66-24.199-3.5234-10.836-21.926c-1.5898-3.2383-6.9062-3.2383-8.4883 0l-10.824 21.926-24.191 3.5234c-1.7812 0.25391-3.2695 1.5078-3.8281 3.2188-0.55859 1.7148-0.09375 3.5898 1.1953 4.8477l17.504 17.059-4.1094 24.117c-0.30469 1.7812 0.42578 3.5703 1.8867 4.6211 1.4688 1.0625 3.3984 1.2109 4.9922 0.35938l21.633-11.375 21.633 11.375c0.69141 0.37109 1.4414 0.55078 2.1992 0.55078 0.98437 0 1.9609-0.30469 2.7852-0.91016 1.4492-1.0508 2.1875-2.8516 1.8867-4.6211l-4.1289-24.105 17.512-17.059c1.2969-1.2578 1.7617-3.1445 1.2031-4.8594-0.56641-1.7148-2.043-2.9531-3.8242-3.2188z"/>
 </g>
</svg>
